<svg width="25" height="28" viewBox="0 0 25 28" fill="none" xmlns="http://www.w3.org/2000/svg">
<path d="M0 26.3258V1.67422C0 0.917542 0.807868 0.435006 1.4741 0.793746L24.3648 13.1195C25.066 13.4971 25.066 14.5029 24.3648 14.8805L1.4741 27.2063C0.807869 27.565 0 27.0825 0 26.3258Z" fill="white"/>
</svg>
